{
    "data": [
        {
            "id": "984b32db-dadd-4dce-90d3-c5f1786ad18e",
            "type": "stores",
            "attributes": {
                "name": "Store3",
                "code": "STCT0000003",
                "active": true,
                "full_address": "Presidente Errazuriz 4125 , Santiago, Chile",
                "coordinates": {
                    "latitude": -33.41991,
                    "longitude": -70.585991
                },
                "created_at": "2019-03-11T20:06:21Z"
            },
            "links": {
                "self": "https://neo.frogmi.com/api/v3/stores/984b32db-dadd-4dce-90d3-c5f1786ad18e"
            },
            "relationships": {
                "brands": {
                    "data": {
                        "id": "54b2cdc3-623d-47b5-b00c-0448afedc8b1",
                        "type": "brands"
                    }
                },
                "zones": {
                    "data": {
                        "id": "a2a7f7d8-62fa-43a5-9451-f98edc7b6454",
                        "type": "zones"
                    }
                }
            }
        },
        {
            "id": "95804a95-a6b0-4580-859d-87d85010b629",
            "type": "stores",
            "attributes": {
                "name": "Store4",
                "code": "STCT0000004",
                "active": true,
                "full_address": "Presidente Errazuriz 4125 , Santiago, Chile",
                "coordinates": {
                    "latitude": -33.41991,
                    "longitude": -70.585991
                },
                "created_at": "2019-03-11T20:06:21Z"
            },
            "links": {
                "self": "https://neo.frogmi.com/api/v3/stores/95804a95-a6b0-4580-859d-87d85010b629"
            },
            "relationships": {
                "brands": {
                    "data": {
                        "id": "3d5764d1-271f-4bc6-9d72-790eda115a57",
                        "type": "brands"
                    }
                },
                "zones": {
                    "data": {
                        "id": "a2a7f7d8-62fa-43a5-9451-f98edc7b6454",
                        "type": "zones"
                    }
                }
            }
        },
        {
            "id": "8ab1b67c-de0b-4374-8f70-3c03d0a573d9",
            "type": "stores",
            "attributes": {
                "name": "Store5",
                "code": "STCT0000005",
                "active": true,
                "full_address": "Presidente Errazuriz 4125 , Santiago, Chile",
                "coordinates": {
                    "latitude": -33.41991,
                    "longitude": -70.585991
                },
                "created_at": "2019-03-11T20:06:21Z"
            },
            "links": {
                "self": "https://neo.frogmi.com/api/v3/stores/8ab1b67c-de0b-4374-8f70-3c03d0a573d9"
            },
            "relationships": {
                "brands": {
                    "data": {
                        "id": "98bbfc25-1eab-4fbf-9b79-8b99a5e74ac1",
                        "type": "brands"
                    }
                },
                "zones": {
                    "data": {
                        "id": "a2a7f7d8-62fa-43a5-9451-f98edc7b6454",
                        "type": "zones"
                    }
                }
            }
        },
        {
            "id": "1c32cd6a-9185-4a4b-8b42-df62590de4df",
            "type": "stores",
            "attributes": {
                "name": "Store6",
                "code": "STCT0000006",
                "active": true,
                "full_address": "Presidente Errazuriz 4125 , Santiago, Chile",
                "coordinates": {
                    "latitude": -33.41991,
                    "longitude": -70.585991
                },
                "created_at": "2019-03-11T20:06:21Z"
            },
            "links": {
                "self": "https://neo.frogmi.com/api/v3/stores/1c32cd6a-9185-4a4b-8b42-df62590de4df"
            },
            "relationships": {
                "brands": {
                    "data": {
                        "id": "c77e6c5f-262e-46cb-ba00-43085e06b0c1",
                        "type": "brands"
                    }
                },
                "zones": {
                    "data": {
                        "id": "a2a7f7d8-62fa-43a5-9451-f98edc7b6454",
                        "type": "zones"
                    }
                }
            }
        },
        {
            "id": "29d4cce1-9fa7-4140-a9c0-fe64b93f5577",
            "type": "stores",
            "attributes": {
                "name": "Store7",
                "code": "STCT0000007",
                "active": true,
                "full_address": "Presidente Errazuriz 4125 , Santiago, Chile",
                "coordinates": {
                    "latitude": -33.41991,
                    "longitude": -70.585991
                },
                "created_at": "2019-03-11T20:06:21Z"
            },
            "links": {
                "self": "https://neo.frogmi.com/api/v3/stores/29d4cce1-9fa7-4140-a9c0-fe64b93f5577"
            },
            "relationships": {
                "brands": {
                    "data": {
                        "id": "bf2136e0-c681-4a70-ba58-0fb104958904",
                        "type": "brands"
                    }
                },
                "zones": {
                    "data": {
                        "id": "a2a7f7d8-62fa-43a5-9451-f98edc7b6454",
                        "type": "zones"
                    }
                }
            }
        },
        {
            "id": "f3b50342-6ee3-43f2-abb6-a61faf1989e3",
            "type": "stores",
            "attributes": {
                "name": "Store8",
                "code": "STCT0000008",
                "active": true,
                "full_address": "Presidente Errazuriz 4125 , Santiago, Chile",
                "coordinates": {
                    "latitude": -33.41991,
                    "longitude": -70.585991
                },
                "created_at": "2019-03-11T20:06:21Z"
            },
            "links": {
                "self": "https://neo.frogmi.com/api/v3/stores/f3b50342-6ee3-43f2-abb6-a61faf1989e3"
            },
            "relationships": {
                "brands": {
                    "data": {
                        "id": "dbdea8f3-923a-4ca5-85e1-c2abff5eb998",
                        "type": "brands"
                    }
                },
                "zones": {
                    "data": {
                        "id": "a2a7f7d8-62fa-43a5-9451-f98edc7b6454",
                        "type": "zones"
                    }
                }
            }
        },
        {
            "id": "96dc04ae-0654-4528-b473-62e12828eee7",
            "type": "stores",
            "attributes": {
                "name": "Store9",
                "code": "STCT0000009",
                "active": true,
                "full_address": "Presidente Errazuriz 4125 , Santiago, Chile",
                "coordinates": {
                    "latitude": -33.41991,
                    "longitude": -70.585991
                },
                "created_at": "2019-03-11T20:06:21Z"
            },
            "links": {
                "self": "https://neo.frogmi.com/api/v3/stores/96dc04ae-0654-4528-b473-62e12828eee7"
            },
            "relationships": {
                "brands": {
                    "data": {
                        "id": "e720d18d-bcac-451a-908a-9ee0c5c386ce",
                        "type": "brands"
                    }
                },
                "zones": {
                    "data": {
                        "id": "a2a7f7d8-62fa-43a5-9451-f98edc7b6454",
                        "type": "zones"
                    }
                }
            }
        },
        {
            "id": "a9005226-4fbe-48fd-a677-0a935aabd739",
            "type": "stores",
            "attributes": {
                "name": "Store10",
                "code": "STCT0000010",
                "active": true,
                "full_address": "Presidente Errazuriz 4125 , Santiago, Chile",
                "coordinates": {
                    "latitude": -33.41991,
                    "longitude": -70.585991
                },
                "created_at": "2019-03-11T20:06:21Z"
            },
            "links": {
                "self": "https://neo.frogmi.com/api/v3/stores/a9005226-4fbe-48fd-a677-0a935aabd739"
            },
            "relationships": {
                "brands": {
                    "data": {
                        "id": "5edc1880-7d80-4c5b-bea4-68154e0e9516",
                        "type": "brands"
                    }
                },
                "zones": {
                    "data": {
                        "id": "a2a7f7d8-62fa-43a5-9451-f98edc7b6454",
                        "type": "zones"
                    }
                }
            }
        },
        {
            "id": "3ef822bf-0d82-42b8-8265-25e697dc4310",
            "type": "stores",
            "attributes": {
                "name": "Store11",
                "code": "STCT0000011",
                "active": true,
                "full_address": "Presidente Errazuriz 4125 , Santiago, Chile",
                "coordinates": {
                    "latitude": -33.41991,
                    "longitude": -70.585991
                },
                "created_at": "2019-03-11T20:06:21Z"
            },
            "links": {
                "self": "https://neo.frogmi.com/api/v3/stores/3ef822bf-0d82-42b8-8265-25e697dc4310"
            },
            "relationships": {
                "brands": {
                    "data": {
                        "id": "54b2cdc3-623d-47b5-b00c-0448afedc8b1",
                        "type": "brands"
                    }
                },
                "zones": {
                    "data": {
                        "id": "a2a7f7d8-62fa-43a5-9451-f98edc7b6454",
                        "type": "zones"
                    }
                }
            }
        },
        {
            "id": "2f1c29ce-1ab5-411c-947b-559c665e40aa",
            "type": "stores",
            "attributes": {
                "name": "Store12",
                "code": "STCT0000012",
                "active": true,
                "full_address": "Presidente Errazuriz 4125 , Santiago, Chile",
                "coordinates": {
                    "latitude": -33.41991,
                    "longitude": -70.585991
                },
                "created_at": "2019-03-11T20:06:21Z"
            },
            "links": {
                "self": "https://neo.frogmi.com/api/v3/stores/2f1c29ce-1ab5-411c-947b-559c665e40aa"
            },
            "relationships": {
                "brands": {
                    "data": {
                        "id": "3d5764d1-271f-4bc6-9d72-790eda115a57",
                        "type": "brands"
                    }
                },
                "zones": {
                    "data": {
                        "id": "a2a7f7d8-62fa-43a5-9451-f98edc7b6454",
                        "type": "zones"
                    }
                }
            }
        }
    ],
    "meta": {
        "pagination": {
            "current_page": 1,
            "total": 125,
            "per_page": 10
        }
    },
    "links": {
        "prev": null,
        "next": "https://neo.frogmi.com/api/v3/stores?per_page=10&page=2",
        "first": "https://neo.frogmi.com/api/v3/stores?per_page=10&page=1",
        "last": "https://neo.frogmi.com/api/v3/stores?per_page=10&page=13",
        "self": "https://neo.frogmi.com/api/v3/stores?per_page=10&page=1"
    }
}